…
# Column names
properties <- c("area", "temp", "size", "storage", "method", "texture", "flavor", "moistness")

# Import potatoes.txt using read_delim(): potatoes
potatoes <- read_delim("potatoes.txt", delim = "\t", col_names = properties)

# Print out potatoes
potatoes
```
### Output:
```R
# A tibble: 160 × 8
    area  temp  size storage method texture flavor moistness
   <dbl> <dbl> <dbl>   <dbl>  <dbl>   <dbl>  <dbl>     <dbl>
 1     1     1     1       1      1     2.9    3.2       3  
 2     1     1     1       1      2     2.3    2.5       2.6
 3     1     1     1       1      3     2.5    2.8       2.8
 4     1     1     1       1      4     2.1    2.9       2.4
 5     1     1     1       1      5     1.9    2.8       2.2
 6     1     1     1       2      1     1.8    3         1.7
 7     1     1     1       2      2     2.6    3.1       2.4
 8     1     1     1       2      3     3      3         2.9
 9     1     1     1       2      4     2.2    3.2       2.5
10     1     1     1       2      5     2      2.8       1.9
# ℹ 150 more rows
# ℹ Use `print(n = ...)` to see more rows
```
…
